…
# Save tidy data as .rds object
saveRDS(tidy_data, "tidy_data.rds")

# View the resulting tidy data
tidy_data
```

```
## # A tibble: 300 × 5
##    month_start   month_end year_end variable value
##    <chr>         <chr>     <chr>    <chr>    <dbl>
##  1 January       June      1990     PROS      12.7
##  2 February      July      1990     PROS      26.4
##  3 March         August    1990     PROS       2.5
##  4 April         September 1990     PROS     -20  
##  5 May           October   1990     PROS     -37.8
##  6 June          November  1990     PROS     -33.3
##  7 July          December  1990     PROS     -10.2
##  8 August1990    January   1991     PROS     -20.3
##  9 September1990 February  1991     PROS      38.9
## 10 October1990   March     1991     PROS      20.2
## # ℹ 290 more rows
```
…
